{
  "selfDescriptionCredential": {
    "selfDescription": {
      "@context": {
        "gx-participant": "http://w3id.org/gaia-x/participant#",
        "sh": "http://www.w3.org/ns/shacl#",
        "xsd": "http://www.w3.org/2001/XMLSchema#"
      },
      "@id": "did:web:compliance.gaia-x.eu",
      "@type": "gx-participant:LegalPerson",
      "gx-participant:name": {
        "@value": "Gaia-X AISBL",
        "@type": "xsd:string"
      },
      "gx-participant:legalName": {
        "@value": "Gaia-X European Association for Data and Cloud AISBL",
        "@type": "xsd:string"
      },
      "gx-participant:registrationNumber": {
        "@value": "FR5751.0762747721",
        "@type": "xsd:string"
      },
      "gx-participant:headquarterAddress": {
        "@type": "gx-participant:Address",
        "gx-participant:country": {
          "@value": "BE",
          "@type": "xsd:string"
        },
        "gx-participant:street-address": {
          "@value": "Avenue des Arts 6-9",
          "@type": "xsd:string"
        },
        "gx-participant:postal-code": {
          "@value": "1210",
          "@type": "xsd:string"
        },
        "gx-participant:locality": {
          "@value": "Bruxelles/Brussels",
          "@type": "xsd:string"
        }
      },
      "gx-participant:legalAddress": {
        "@type": "gx-participant:Address",
        "gx-participant:country": {
          "@value": "BE",
          "@type": "xsd:string"
        },
        "gx-participant:street-address": {
          "@value": "Avenue des Arts 6-9",
          "@type": "xsd:string"
        },
        "gx-participant:postal-code": {
          "@value": "1210",
          "@type": "xsd:string"
        },
        "gx-participant:locality": {
          "@value": "Bruxelles/Brussels",
          "@type": "xsd:string"
        }
      }
    },
    "proof": {
      "type": "JsonWebKey2020",
      "created": "2022-06-15T09:06:22.142Z",
      "proofPurpose": "assertionMethod",
      "verificationMethod": "did:web:compliance.lab.gaia-x.eu",
      "jws": "eyJhbGciOiJQUzI1NiIsImI2NCI6ZmFsc2UsImNyaXQiOlsiYjY0Il19..WvqkadFtLps-iHPmGCOQtMODg6fEC1GJqOP3GjS1NAlJYRliEQco--WLIAXcuDo0DD08IiTdMwgKPZTNMnPZOc-8k3CQpK4ftUr5TeW9wHpHDpbf06O_SzcINxcMk23bZMcpOw7bKhVpX1fUVwsJ_Mn2-GcXV3oQ0EsUz5kBDkUG_PhHejBnXMn0Ch5nwElMEFrnGfw_krwEGzD1veE1hhBnc75BYDRS2M2gmjvqdoAWBuebq1yWlwmkLxg10lXVyTLq9MPktYBHxgYGRetOWmPF7AT9OKlFfmCe1N43t8zV8wI_YhqU4bP6Swba00mD3NpQS5W90ZDatAlzhBASaw"
    }
  },
  "complianceCredential": {
    "@context": [
      "https://www.w3.org/2018/credentials/v1"
    ],
    "@type": [
      "VerifiableCredential",
      "ParticipantCredential"
    ],
    "id": "https://catalogue.gaia-x.eu/credentials/ParticipantCredential/1655283984406",
    "issuer": "did:web:compliance.lab.gaia-x.eu",
    "issuanceDate": "2022-06-15T09:06:24.406Z",
    "credentialSubject": {
      "id": "did:web:compliance.gaia-x.eu",
      "hash": "4c1247335610065366323376713dec7b89518a6ef47a81a6bf8d16fad5e5b15f"
    },
    "proof": {
      "type": "JsonWebKey2020",
      "created": "2022-06-15T09:06:24.405Z",
      "proofPurpose": "assertionMethod",
      "jws": "eyJhbGciOiJQUzI1NiIsImI2NCI6ZmFsc2UsImNyaXQiOlsiYjY0Il19..WvPtbkk0Ve1triD3U3D8L1ZD_GPi6Fj2Dcoela3oUNEwVjcbjE_kaHAwaTGBpe88uv3K_0X1oF-Maer078NidtQb3uYBnn-xPoptpkDsqBGXP8yN3saPS4OSHW01rHADAGQHdFCAqgsmqILDnULNk2NhQ7bImaPXKIitrd8_Ebe-lFYHYiaHNOYfxIPIJZ8B2x7DCx1_hh6aNNe-9aH3Yrw_Pzjfj_NwUB9nzK1RkuB147fFg30PwQ2Bobb8LhzMkSNdOFv3NyioTIuOejseqDIcdrp9I-92ffbVUHXDKU9BbIw3Ixbh54dUKkcZ73u-dX7wAxAaAMovsnSH3tvsJQ",
      "verificationMethod": "did:web:compliance.lab.gaia-x.eu"
    }
  }
}
